…
# combine precipitation datasets 
# convert month to a character variable
precipi = bind_rows(precipi2017, precipi2018) %>%
  select(year, month, total) %>%
  mutate(month = month.name[month])

precipi
```

    ## # A tibble: 24 x 3
    ##    year  month     total
    ##    <chr> <chr>     <dbl>
    ##  1 2017  January    2.34
    ##  2 2017  February   1.46
    ##  3 2017  March      3.57
    ##  4 2017  April      3.99
    ##  5 2017  May        5.64
    ##  6 2017  June       1.4 
    ##  7 2017  July       7.09
    ##  8 2017  August     4.44
    ##  9 2017  September  1.95
    ## 10 2017  October    0   
    ## # … with 14 more rows
…
``` r
# Join the datasets 
snp_pols = left_join(pols, snp, by = c("year", "month"))
snp_pols_unemploy = left_join(snp_pols, tidy_unemploy, by = c("year", "month"))

snp_pols_unemploy
```

    ## # A tibble: 822 x 11
    ##     year month gov_gop sen_gop rep_gop gov_dem sen_dem rep_dem president
    ##    <int> <chr>   <dbl>   <dbl>   <dbl>   <dbl>   <dbl>   <dbl> <fct>    
    ##  1  1947 Jan        23      51     253      23      45     198 dem      
    ##  2  1947 Feb        23      51     253      23      45     198 dem      
    ##  3  1947 Mar        23      51     253      23      45     198 dem      
    ##  4  1947 Apr        23      51     253      23      45     198 dem      
    ##  5  1947 May        23      51     253      23      45     198 dem      
    ##  6  1947 Jun        23      51     253      23      45     198 dem      
    ##  7  1947 Jul        23      51     253      23      45     198 dem      
    ##  8  1947 Aug        23      51     253      23      45     198 dem      
    ##  9  1947 Sep        23      51     253      23      45     198 dem      
    ## 10  1947 Oct        23      51     253      23      45     198 dem      
    ## # … with 812 more rows, and 2 more variables: close <dbl>,
    ## #   unemployment <dbl>
…
names = distinct(names)
# unique(names)

dim(names)
```

    ## [1] 12181     6

``` r
names
```

    ## # A tibble: 12,181 x 6
    ##    year_of_birth gender ethnicity              childs_first_na… count  rank
    ##            <dbl> <chr>  <chr>                  <chr>            <dbl> <dbl>
    ##  1          2016 FEMALE ASIAN AND PACIFIC ISL… OLIVIA             172     1
    ##  2          2016 FEMALE ASIAN AND PACIFIC ISL… CHLOE              112     2
    ##  3          2016 FEMALE ASIAN AND PACIFIC ISL… SOPHIA             104     3
    ##  4          2016 FEMALE ASIAN AND PACIFIC ISL… EMILY               99     4
    ##  5          2016 FEMALE ASIAN AND PACIFIC ISL… EMMA                99     4
    ##  6          2016 FEMALE ASIAN AND PACIFIC ISL… MIA                 79     5
    ##  7          2016 FEMALE ASIAN AND PACIFIC ISL… CHARLOTTE           59     6
    ##  8          2016 FEMALE ASIAN AND PACIFIC ISL… SARAH               57     7
    ##  9          2016 FEMALE ASIAN AND PACIFIC ISL… ISABELLA            56     8
    ## 10          2016 FEMALE ASIAN AND PACIFIC ISL… HANNAH              56     8
    ## # … with 12,171 more rows
…
